"","hhid","treat","bloc"
"57",2010906,"Tech",1
"58",2010907,"Ctrl",1
"107",2121612,"Retrn",1
"173",2213013,"Tech+Retrn",1
"3",2010104,"Tech",2
"6",2010108,"Retrn",2
"210",2213315,"Tech+Retrn",2
"222",2213501,"Ctrl",2
"26",2010311,"Ctrl",3
"71",2011010,"Retrn",3
"181",2213107,"Tech",3
"199",2213301,"Tech+Retrn",3
"8",2010110,"Ctrl",4
"66",2011003,"Tech",4
"209",2213314,"Retrn",4
"239",2213614,"Tech+Retrn",4
"87",2011301,"Retrn",5
"94",2011310,"Tech",5
"95",2011311,"Tech+Retrn",5
"108",2121614,"Ctrl",5
"40",2010614,"Tech+Retrn",6
"154",2122409,"Retrn",6
"224",2213504,"Ctrl",6
"228",2213508,"Tech",6
"34",2010602,"Retrn",7
"77",2011104,"Ctrl",7
"130",2122008,"Tech+Retrn",7
"225",2213505,"Tech",7
"91",2011305,"Ctrl",8
"99",2121411,"Retrn",8
"119",2121902,"Tech",8
"163",2122801,"Tech+Retrn",8
"39",2010611,"Ctrl",9
"44",2010707,"Tech+Retrn",9
"74",2011014,"Tech",9
"169",2213005,"Retrn",9
"19",2010302,"Tech+Retrn",10
"22",2010306,"Tech",10
"88",2011302,"Retrn",10
"229",2213509,"Ctrl",10
"15",2010209,"Tech+Retrn",11
"36",2010608,"Tech",11
"50",2010810,"Ctrl",11
"183",2213109,"Retrn",11
"61",2010910,"Retrn",12
"102",2121508,"Ctrl",12
"158",2122608,"Tech+Retrn",12
"168",2213002,"Tech",12
"1",2010101,"Tech+Retrn",13
"65",2011002,"Ctrl",13
"180",2213105,"Tech",13
"235",2213606,"Retrn",13
"89",2011303,"Retrn",14
"160",2122614,"Tech",14
"171",2213010,"Ctrl",14
"197",2213213,"Tech+Retrn",14
"35",2010604,"Tech",15
"105",2121515,"Ctrl",15
"120",2121903,"Retrn",15
"207",2213312,"Tech+Retrn",15
"46",2010805,"Retrn",16
"189",2213201,"Ctrl",16
"211",2213401,"Tech+Retrn",16
"214",2213404,"Tech",16
"49",2010808,"Tech+Retrn",17
"68",2011007,"Ctrl",17
"101",2121507,"Tech",17
"109",2121802,"Retrn",17
"55",2010903,"Ctrl",18
"72",2011011,"Retrn",18
"177",2213102,"Tech+Retrn",18
"226",2213506,"Tech",18
"41",2010702,"Retrn",19
"187",2213114,"Tech",19
"192",2213204,"Tech+Retrn",19
"221",2213415,"Ctrl",19
"139",2122205,"Tech",20
"193",2213206,"Ctrl",20
"206",2213311,"Tech+Retrn",20
"219",2213413,"Retrn",20
"5",2010107,"Tech",21
"31",2010504,"Ctrl",21
"64",2011001,"Tech+Retrn",21
"85",2011207,"Retrn",21
"4",2010106,"Retrn",22
"96",2121401,"Ctrl",22
"147",2122402,"Tech+Retrn",22
"150",2122405,"Tech",22
"52",2010812,"Tech+Retrn",23
"104",2121514,"Tech",23
"115",2121810,"Retrn",23
"116",2121812,"Ctrl",23
"69",2011008,"Tech+Retrn",24
"79",2011107,"Retrn",24
"103",2121513,"Tech",24
"191",2213203,"Ctrl",24
"48",2010807,"Retrn",25
"51",2010811,"Tech",25
"167",2122909,"Tech+Retrn",25
"195",2213209,"Ctrl",25
"2",2010103,"Tech+Retrn",26
"59",2010908,"Tech",26
"223",2213502,"Retrn",26
"232",2213512,"Ctrl",26
"42",2010703,"Ctrl",27
"92",2011306,"Tech",27
"127",2122004,"Retrn",27
"141",2122301,"Tech+Retrn",27
"98",2121405,"Ctrl",28
"100",2121413,"Retrn",28
"157",2122607,"Tech",28
"234",2213605,"Tech+Retrn",28
"70",2011009,"Ctrl",29
"75",2011101,"Tech+Retrn",29
"166",2122908,"Retrn",29
"201",2213303,"Tech",29
"67",2011004,"Ctrl",30
"82",2011201,"Retrn",30
"178",2213103,"Tech",30
"237",2213610,"Tech+Retrn",30
"13",2010205,"Tech+Retrn",31
"30",2010503,"Retrn",31
"38",2010610,"Tech",31
"184",2213110,"Ctrl",31
"27",2010314,"Ctrl",32
"54",2010902,"Tech+Retrn",32
"118",2121901,"Tech",32
"125",2122001,"Retrn",32
"7",2010109,"Retrn",33
"28",2010315,"Tech+Retrn",33
"164",2122803,"Ctrl",33
"230",2213510,"Tech",33
"86",2011212,"Retrn",34
"106",2121605,"Ctrl",34
"172",2213012,"Tech+Retrn",34
"218",2213412,"Tech",34
"162",2122706,"Tech+Retrn",35
"174",2213014,"Ctrl",35
"194",2213207,"Retrn",35
"203",2213306,"Tech",35
"80",2011110,"Ctrl",36
"152",2122407,"Retrn",36
"153",2122408,"Tech",36
"200",2213302,"Tech+Retrn",36
"63",2010915,"Retrn",37
"190",2213202,"Ctrl",37
"212",2213402,"Tech",37
"213",2213403,"Tech+Retrn",37
"12",2010204,"Ctrl",38
"137",2122112,"Tech",38
"142",2122302,"Tech+Retrn",38
"202",2213304,"Retrn",38
"9",2010201,"Ctrl",39
"33",2010507,"Retrn",39
"185",2213111,"Tech",39
"208",2213313,"Tech+Retrn",39
"11",2010203,"Retrn",40
"18",2010301,"Tech+Retrn",40
"145",2122306,"Tech",40
"170",2213006,"Ctrl",40
"20",2010304,"Retrn",41
"62",2010913,"Tech+Retrn",41
"90",2011304,"Ctrl",41
"198",2213215,"Tech",41
"23",2010308,"Tech+Retrn",42
"25",2010310,"Retrn",42
"60",2010909,"Ctrl",42
"179",2213104,"Tech",42
"126",2122002,"Retrn",43
"136",2122109,"Ctrl",43
"161",2122701,"Tech",43
"240",2213615,"Tech+Retrn",43
"32",2010505,"Tech+Retrn",44
"78",2011106,"Tech",44
"81",2011112,"Retrn",44
"93",2011309,"Ctrl",44
"73",2011013,"Tech",45
"135",2122103,"Retrn",45
"144",2122305,"Ctrl",45
"156",2122604,"Tech+Retrn",45
"14",2010208,"Ctrl",46
"131",2122009,"Tech+Retrn",46
"143",2122304,"Tech",46
"238",2213613,"Retrn",46
"47",2010806,"Retrn",47
"76",2011103,"Ctrl",47
"121",2121905,"Tech",47
"188",2213115,"Tech+Retrn",47
"176",2213101,"Retrn",48
"182",2213108,"Ctrl",48
"204",2213308,"Tech+Retrn",48
"231",2213511,"Tech",48
"114",2121809,"Retrn",49
"122",2121906,"Tech+Retrn",49
"123",2121907,"Ctrl",49
"134",2122102,"Tech",49
"21",2010305,"Ctrl",50
"117",2121813,"Retrn",50
"140",2122215,"Tech",50
"165",2122901,"Tech+Retrn",50
"17",2010212,"Ctrl",51
"84",2011206,"Tech",51
"129",2122007,"Tech+Retrn",51
"227",2213507,"Retrn",51
"83",2011204,"Retrn",52
"113",2121807,"Ctrl",52
"133",2122101,"Tech",52
"146",2122401,"Tech+Retrn",52
"10",2010202,"Retrn",53
"56",2010904,"Tech+Retrn",53
"110",2121803,"Ctrl",53
"128",2122006,"Tech",53
"45",2010804,"Ctrl",54
"186",2213112,"Retrn",54
"216",2213406,"Tech+Retrn",54
"217",2213410,"Tech",54
"29",2010501,"Retrn",55
"53",2010813,"Tech+Retrn",55
"132",2122011,"Tech",55
"138",2122201,"Ctrl",55
"97",2121404,"Tech+Retrn",56
"159",2122613,"Ctrl",56
"175",2213015,"Retrn",56
"220",2213414,"Tech",56
"24",2010309,"Ctrl",57
"37",2010609,"Tech",57
"196",2213212,"Tech+Retrn",57
"236",2213608,"Retrn",57
"43",2010706,"Ctrl",58
"111",2121804,"Retrn",58
"205",2213310,"Tech+Retrn",58
"233",2213603,"Tech",58
"124",2121909,"Ctrl",59
"149",2122404,"Retrn",59
"151",2122406,"Tech+Retrn",59
"155",2122601,"Tech",59
"16",2010211,"Tech+Retrn",60
"112",2121806,"Tech",60
"148",2122403,"Ctrl",60
"215",2213405,"Retrn",60
"410",2121601,"Retrn",61
"510",2121603,"Tech+Retrn",61
"610",2121604,"Tech",61
"1110",2213007,"Ctrl",61
"710",2121606,"Retrn",62
"810",2121910,"Ctrl",62
"1010",2213003,"Tech",62
"1210",2213208,"Tech+Retrn",62
"1100",2010605,"Tech+Retrn",63
"241",2011015,"Tech",63
"310",2121512,"Ctrl",63
"910",2213001,"Retrn",63
